module gitlab.com/thalesfaggiano/ge-rate-limiter
go 1.22.3
require (
	github.com/joho/godotenv v1.5.1
	github.com/stretchr/testify v1.9.0
	github.com/go-redis/redis/v8 v8.11.5
	github.com/alicebob/miniredis/v2 v2.32.1
)
require (
	golang.org/x/net v0.20.0 // indirect
	golang.org/x/sys v0.16.0 // indirect
	gopkg.in/yaml.v3 v3.0.1 // indirect
	gopkg.in/check.v1 v1.0.0-20200227125254-8fa46927fb4f // indirect
	github.com/kr/text v0.2.0 // indirect
	github.com/stretchr/objx v0.5.2 // indirect
	github.com/davecgh/go-spew v1.1.1 // indirect
	github.com/yuin/gopher-lua v1.1.1 // indirect
	github.com/fsnotify/fsnotify v1.6.0 // indirect
	github.com/cespare/xxhash/v2 v2.3.0 // indirect
	github.com/pmezard/go-difflib v1.0.0 // indirect
	github.com/niemeyer/pretty v0.0.0-20200227124842-a10e7caefd8e // indirect
	github.com/dgryski/go-rendezvous v0.0.0-20200823014737-9f7001d12a5f // indirect
	github.com/alicebob/gopher-json v0.0.0-20230218143504-906a9b012302 // indirect
)
